<svg width="365" height="365" viewBox="0 0 365 365" fill="none" xmlns="http://www.w3.org/2000/svg">
<path d="M354.515 245.578C353.687 245.54 344.134 245.451 328.711 245.337C327.995 246.024 327.145 246.557 326.215 246.902C343.488 246.888 354.102 246.871 354.446 246.86C355.747 246.813 355.738 245.636 354.515 245.578Z" fill="#191919"/>
<path d="M63.0354 244.282C40.3397 244.32 23.5214 244.441 16.6977 244.681C11.9409 244.848 11.9409 246.636 16.601 246.909C17.2526 246.947 34.6001 246.969 61.1219 246.98L63.0354 244.282Z" fill="#191919"/>
<path d="M272.801 246.938H275.525C275.411 246.289 275.304 245.638 275.205 244.986L271.407 244.964L272.801 246.938Z" fill="#191919"/>
<path d="M319.036 211.976C323.204 213.768 320.18 218.005 323.054 217.807C326.993 217.535 329.776 217.427 330.197 220.451C331.615 230.587 332.309 246.8 322.149 245.573C316.479 244.889 328.675 259.159 296.634 259.081C292.088 259.07 287.726 258.052 283.39 256.785C280.486 255.936 278.832 254.145 278.179 251.23C275.829 240.723 274.923 228.13 276.071 215.303C276.255 213.244 277.054 211.991 279.013 211.296C286.71 208.565 308.369 207.389 319.037 211.976H319.036H319.036ZM278.817 216.231C278.555 217.809 277.643 238.549 281.444 251.209C283.028 256.483 302.925 256.18 310.449 254.744C316.097 253.664 317.085 250.999 317.813 246.79C319.777 235.443 319.719 227.51 318.938 216.458C305.499 221.284 292.169 220.794 278.819 216.231H278.817ZM321.821 235.092C321.291 241.906 320.469 242.579 322.286 242.463C324.635 242.312 326.056 241.203 326.562 238.471C327.372 234.096 327.658 229.656 327.44 225.209C327.202 220.361 327.873 221.279 322.983 221.07C320.961 220.985 322.714 223.623 321.823 235.091H321.821V235.092Z" fill="#191919"/>
<path d="M296.84 136.061C296.84 141.604 295.717 148.868 300.223 160.555C303.708 169.601 301.258 177.007 297.21 185.812C294.002 192.79 297.848 197.829 296.62 198.263C295.854 198.532 292.344 192.428 295.413 184.07C299.043 174.187 301.182 170.262 296.216 157.301C293.795 150.984 293.887 141.643 296.84 136.061Z" fill="#191919"/>
<path d="M283.787 162.058C294.582 171.366 288.344 179.152 286.486 187.834C284.047 199.222 293.614 204.658 292.504 205.89C292.136 206.3 291.648 206.103 291.285 205.812C284.463 200.305 282.03 193.387 284.602 184.711C286.37 178.749 289.182 173.359 285.486 166.342C284.814 165.068 284.088 163.823 283.786 162.059L283.787 162.057V162.058Z" fill="#191919"/>
<path d="M308.959 176.08C310.765 186.748 310.62 186.645 305.786 195.411C302.795 200.834 305.603 204.449 305.065 204.841C304.266 205.423 303.499 204.206 303.08 203.311C299.509 195.691 307.1 192.224 307.431 180.705C307.479 179.086 307.843 177.465 308.957 176.081L308.959 176.08Z" fill="#191919"/>
<path d="M258.543 202.887C258.543 202.547 258.543 124.74 258.146 118.035C257.868 113.336 257.349 113.569 223.383 113.728C228.897 115.626 232.352 120.161 233.645 125.283L249.77 125.356C250.447 126.283 249.974 128.044 250.043 129.434C250.091 130.388 252.756 130.625 234.2 130.799C234.158 131.77 234.039 132.735 233.845 133.687C248.213 133.729 250.022 133.939 249.986 134.713V209.479C249.986 211.789 249.947 210.986 214.289 211.159C143.31 211.505 124.577 211.406 119.328 211.319C117.48 211.288 117.487 210.853 117.485 210.422L116.797 136.797C116.759 133.991 116.688 133.939 119.544 133.916C164.782 133.511 178.817 134.221 183.55 133.703H189.436C193.153 132.753 194.868 131.85 198.108 131.021L84.4217 131.852C82.6961 131.866 83.5949 131.635 83.3933 125.453C83.344 123.988 115.197 124.577 200.895 125.102C202.295 120.092 205.796 115.668 211.297 113.768L206.984 113.773C73.9389 113.894 74.2737 112.566 74.0502 117.672C73.6186 127.477 73.2052 175.893 73.5711 227.711C73.5985 231.681 73.7135 231.871 77.702 231.871C98.9341 231.865 229.514 231.701 255.916 230.473C259.184 230.321 258.55 230.72 258.545 202.884L258.543 202.888V202.887ZM114.121 133.901C115.934 133.876 115.062 134.305 115.158 140.864C115.188 142.688 115.242 141.995 93.8989 142.401C88.6319 142.501 90.4204 144.179 89.9669 134.697C89.9067 133.444 88.6365 134.26 114.121 133.901ZM114.079 151.237C89.9322 151.564 89.9523 152.455 89.9687 150.833C90.0472 142.934 89.5682 143.613 91.1833 143.618C106.657 143.658 112.213 143.074 114.166 143.333C115.177 143.466 115.222 143.825 115.18 144.607C114.871 150.323 115.881 151.214 114.079 151.238V151.237ZM89.9304 160.616C90.0582 153.36 89.6101 153.386 90.8566 153.398C115.176 153.657 115.183 152.487 115.172 153.843C115.126 160.373 115.695 160.482 114.175 160.533C88.4996 161.389 89.9067 161.913 89.9304 160.619V160.616ZM89.8811 169.194C90.1576 163.243 89.3382 162.556 90.8219 162.536C115.241 162.2 115.263 161.553 115.241 163.004C115.139 169.669 115.878 170.004 114.295 169.988C88.5507 169.742 89.7808 171.342 89.8811 169.194ZM91.0063 171.799C115.331 171.616 115.318 170.592 115.309 172.718C115.122 212.305 116.725 212.458 114.233 212.464C89.6539 212.529 89.7023 213.496 89.7169 211.225C89.9843 171.765 89.0216 171.813 91.0053 171.798L91.0063 171.799ZM83.115 173.306C83.7044 131.394 82.6049 133.845 84.4198 133.978C85.7576 134.076 87.4785 133.592 88.3189 134.262C88.4978 134.404 88.1675 196.029 88.1355 211.388C88.1319 213.265 87.3471 212.409 83.4371 212.689C81.8621 212.802 82.5218 215.423 83.115 173.306V173.306ZM231.366 220.343C149.243 221.183 110.171 220.193 83.3431 221.046C81.5683 221.102 82.5602 220.074 82.2964 215.466C82.1833 213.507 71.9131 214.246 224.951 213.84C248.765 213.776 247.64 213.677 248.774 213.694C250.474 213.719 249.548 214.605 249.934 218.722C250.139 220.921 250.179 220.149 231.367 220.342L231.366 220.343Z" fill="#191919"/>
<path d="M281.14 264.939C258.519 232.923 259.187 232.943 254.24 233.212C245.13 233.709 94.9655 234.458 94.9153 234.458C75.7994 234.492 74.6122 234.454 73.3064 236.203C70.4101 240.084 73.133 236.092 56.291 259.984C47.9115 271.869 47.2947 268.686 86.8817 269.343C98.5069 269.535 275.763 268.243 279.193 268.465C281.734 268.629 282.952 267.5 281.141 264.937V264.939H281.14ZM255.879 247.426C258.148 247.408 258.399 251.071 255.962 251.071H240.838C239.94 251.071 238.384 248.537 238.775 247.734C238.954 247.368 238.797 247.557 255.88 247.426H255.879ZM228.07 239.544C233.358 239.425 244.136 239.383 250.137 239.267C251.438 239.242 251.628 239.432 252.937 241.536C253.101 241.801 253.192 242.106 253.199 242.418C253.206 242.73 253.13 243.038 252.979 243.311C252.827 243.584 252.605 243.811 252.337 243.97C252.068 244.128 251.761 244.212 251.449 244.212C228.744 244.225 229.063 244.5 228.722 243.68C226.835 239.126 226.668 239.575 228.069 239.544H228.07ZM199.79 239.934C200.214 239.366 201.943 239.745 203.09 239.736C209.833 239.673 216.58 239.644 223.322 239.545C224.495 239.527 224.678 239.81 225.498 241.897C225.602 242.163 225.639 242.449 225.607 242.732C225.575 243.016 225.475 243.287 225.314 243.522C225.153 243.757 224.938 243.95 224.686 244.083C224.434 244.216 224.153 244.285 223.868 244.285C200.473 244.303 200.748 244.815 200.484 243.246C200.29 242.09 199.183 240.747 199.789 239.934L199.79 239.934ZM177.258 239.87C197.082 239.926 196.925 239.081 197.331 240.955C197.826 243.249 199.222 244.405 197.018 244.359C180.026 244.008 174.444 245.682 174.139 243.511C173.616 239.802 173.578 239.859 177.258 239.87ZM152.821 243.585C152.97 240.098 152.934 240.038 156.352 239.983C171.431 239.748 171.311 239.811 171.424 240.341C172.339 244.617 172.385 244.511 171.104 244.522C152.762 244.688 152.753 245.159 152.821 243.586V243.585ZM101.384 244.178C102.789 238.571 100.764 240.126 128.099 240.006C129.001 240.002 129.288 240.174 129.243 241.138C129.066 244.835 129.1 244.854 125.419 244.872C100.63 244.998 100.951 245.904 101.384 244.18V244.178ZM119.658 247.849C120.58 247.841 120.861 248.099 120.797 249.041C120.612 251.77 120.648 251.802 117.98 251.819C88.8052 252.01 89.996 252.834 90.4459 251.01C91.4378 246.963 90.1411 248.101 119.658 247.849ZM79.8299 242.713C81.1475 240.423 81.2023 240.343 81.8237 240.343L98.0835 240.354C98.3531 240.355 98.6189 240.418 98.8603 240.538C99.1017 240.658 99.312 240.832 99.4751 241.047C99.6382 241.262 99.7495 241.511 99.8005 241.776C99.8514 242.041 99.8406 242.314 99.7689 242.573C99.0681 245.111 99.0937 245.171 98.4768 245.175C92.8175 245.211 87.1554 245.402 81.3245 245.346C81.0185 245.343 80.7188 245.259 80.4552 245.103C80.1916 244.948 79.9733 244.726 79.8218 244.46C79.6703 244.194 79.5911 243.893 79.5918 243.587C79.5926 243.281 79.6734 242.981 79.8262 242.716L79.8299 242.714V242.713ZM75.845 249.466C76.8624 247.855 76.5896 247.765 77.7366 247.785C89.6274 247.999 89.6183 247.543 89.0817 249.186C87.9858 252.547 89.0817 252.212 77.3214 252.15C77.0091 252.148 76.7029 252.063 76.4344 251.904C76.166 251.744 75.9451 251.516 75.7945 251.242C75.644 250.968 75.5693 250.66 75.5782 250.347C75.587 250.035 75.6791 249.731 75.845 249.466ZM111.081 256.408C109.983 260.524 111.358 260.947 108.163 260.968C81.5043 261.15 74.6907 261.25 71.8309 261.293C71.5186 261.298 71.2108 261.219 70.9393 261.064C70.6678 260.91 70.4426 260.686 70.287 260.415C70.1313 260.144 70.0509 259.837 70.0541 259.524C70.0574 259.212 70.144 258.906 70.3052 258.639C72.5207 254.947 72.5061 254.894 73.3584 254.912C110.035 255.681 111.853 253.511 111.081 256.407V256.408ZM147.847 257.171C147.723 262.934 147.661 259.3 130.281 260.655C129.586 260.709 130.026 260.797 113.85 260.893C111.984 260.904 113.165 260.414 113.393 256.169C113.487 254.379 113.942 254.877 124.173 254.824C151.58 254.681 147.921 253.737 147.846 257.171H147.847ZM148.152 249.239C147.963 251.627 148.057 251.656 145.697 251.669C121.296 251.81 122.346 252.401 122.619 250.654C123.232 246.736 122.3 248.028 146.608 247.741C147.79 247.726 148.257 247.901 148.152 249.239ZM147.199 244.735C130.91 244.919 130.517 245.419 130.924 243.445C131.152 242.342 130.442 240.821 131.261 240.177C131.945 239.638 133.365 240.029 134.463 240.028C151.522 240.004 150.936 239.541 150.697 241.466C150.3 244.673 150.375 244.702 147.199 244.737V244.735ZM150.241 250.158C150.507 247.791 150.405 247.735 152.708 247.732C213.918 247.63 213.508 246.65 213.907 248.566C214.244 250.181 215.331 251.171 213.523 251.182C145.457 251.604 149.976 252.527 150.241 250.159V250.158ZM171.424 260.272C164.457 260.176 168.539 260.247 151.207 260.478C149.692 260.498 150.28 260.055 150.153 255.525C150.114 254.165 150.12 254.681 167.605 254.571C171.339 254.547 172.005 254.189 172.06 255.65C172.195 259.341 173.249 260.3 171.425 260.274V260.272H171.424ZM215.156 260.003C174.586 260.027 174.6 261.288 174.62 258.758C174.631 257.416 173.779 255.755 174.474 254.829C175.215 253.843 176.997 254.531 178.306 254.52C190.301 254.43 202.299 254.441 214.298 254.385C215.86 254.378 215.862 254.531 216.828 257.753C216.906 258.014 216.923 258.289 216.876 258.558C216.829 258.826 216.719 259.079 216.557 259.298C216.394 259.517 216.183 259.694 215.94 259.817C215.696 259.939 215.429 260.003 215.156 260.003ZM216.768 250.109C216.091 248.976 216.995 247.54 218.312 247.538C236.418 247.522 235.702 246.932 236.335 248.777C236.428 249.04 236.455 249.322 236.416 249.598C236.378 249.874 236.273 250.138 236.112 250.365C235.951 250.593 235.738 250.779 235.49 250.908C235.242 251.037 234.967 251.104 234.688 251.105C220.586 251.156 217.713 251.689 216.766 250.108L216.768 250.109ZM221.488 260.105C220.041 260.156 220.026 259.86 219.025 256.318C218.952 256.058 218.939 255.785 218.989 255.519C219.039 255.253 219.149 255.003 219.312 254.787C219.475 254.572 219.686 254.397 219.928 254.277C220.17 254.156 220.437 254.094 220.707 254.094C247.877 254.081 247.34 253.642 247.884 254.913C251.102 262.446 255.029 258.935 221.487 260.105H221.488ZM262.044 259.796C251.125 259.825 253.439 260.797 251.268 256.506C251.133 256.239 251.068 255.942 251.081 255.644C251.093 255.345 251.182 255.054 251.338 254.799C251.495 254.544 251.714 254.334 251.976 254.188C252.237 254.042 252.531 253.965 252.83 253.965C262.699 253.965 260.653 252.986 263.48 257.046C263.662 257.308 263.769 257.615 263.789 257.934C263.809 258.253 263.742 258.571 263.594 258.855C263.446 259.138 263.224 259.375 262.951 259.541C262.678 259.707 262.365 259.795 262.045 259.796H262.044Z" fill="#191919"/>
<path d="M157.578 138.85C157.704 140.348 149.549 140.196 132.614 139.942C131.897 139.931 130.695 140.189 130.708 139.108C130.721 138.07 131.943 138.263 132.653 138.252C157.045 137.87 157.48 137.642 157.58 138.849L157.578 138.85Z" fill="#191919"/>
<path d="M120.318 138.244C120.265 136.381 123.309 134.064 125.662 135.817C128.824 138.173 125.263 139.482 127.677 141.791C128.551 142.625 129.307 143.409 128.705 143.984C127.482 145.153 126.717 141.241 124.049 141.918C122.301 142.363 120.386 140.669 120.317 138.245L120.318 138.244ZM123.633 140.512C126.245 140.545 126.376 136.888 123.793 136.729C121.49 136.588 121.068 140.227 123.633 140.512Z" fill="#191919"/>
<path d="M89.257 130.375C86.6044 130.342 86.7686 126.547 89.142 126.681C91.5154 126.816 91.5994 130.086 89.2588 130.375H89.257Z" fill="#191919"/>
<path d="M94.6526 130.137C92.0656 129.747 92.5666 126.712 94.7986 126.833C97.0087 126.951 96.8846 130.002 94.6526 130.137Z" fill="#191919"/>
<path d="M92.4315 197.469C92.4078 193.81 93.0593 194.937 96.2887 194.778C97.5233 194.718 97.829 195.269 97.8673 196.355C98.0096 200.344 98.0315 200.34 94.241 200.227C93.0466 200.191 92.4425 199.273 92.4315 197.469Z" fill="#191919"/>
<path d="M92.2299 180.019C92.208 176.58 92.5757 177.625 96.0943 177.297C97.2796 177.186 97.6748 177.738 97.6565 178.879C97.5872 183.245 98.2697 182.729 93.9189 182.725C92.2481 182.725 92.2463 182.676 92.2299 180.018V180.019Z" fill="#191919"/>
<path d="M92.4698 188.642C92.446 185.065 92.989 186.328 96.3014 185.958C97.3881 185.838 97.8672 186.306 97.8599 187.393C97.8271 192.062 98.3317 191.297 94.084 191.403C92.0619 191.454 92.4825 190.498 92.4698 188.642Z" fill="#191919"/>
<path d="M99.4897 188.48C99.4569 187.143 103.078 187.239 111.29 187.696C112.621 187.771 112.621 189.399 111.173 189.434C108.1 189.509 99.5262 189.913 99.4897 188.48Z" fill="#191919"/>
<path d="M106.078 180.758C102.832 180.465 99.3911 181.344 99.3154 179.88C99.2241 178.156 105.955 178.908 111.057 179.039C112.408 179.073 112.404 180.781 111.021 180.788C110.984 180.788 106.925 180.834 106.081 180.757L106.078 180.758Z" fill="#191919"/>
<path d="M105.956 198.185C100.753 198.185 99.539 198.443 99.4897 197.325C99.4149 195.651 105.654 196.328 111.257 196.506C112.606 196.548 112.624 198.237 111.197 198.244C111.159 198.244 105.956 198.298 105.956 198.185Z" fill="#191919"/>
<path d="M197.345 165.097C195.166 163.777 195.578 163.067 193.776 165.006C189.965 169.102 185.533 172.287 180.191 174.035C167.195 178.294 161.235 170.943 158.97 174.355C147.756 191.242 142.736 197.496 140.649 200.609C138.896 203.226 139.216 203.623 139.675 206.244C140.076 208.524 140.003 207.477 153.856 203.91C151.623 204.49 228.006 185.12 227.706 184.089C227.14 182.146 226.787 181.15 226.002 180.389C223.88 178.327 218.593 177.969 197.345 165.098V165.097Z" fill="#1D1D1D"/>
<path d="M126.996 155.548C139.652 164.094 144.926 166.795 156.341 171.612C157.181 171.965 157.621 172.058 157.148 173.068C156.361 174.748 138.579 199.495 138.265 199.463C137.498 199.383 131.134 168.679 126.996 155.548Z" fill="#1D1D1D"/>
<path d="M217.119 146.717C213.709 146.717 210.827 145.985 208.461 144.74C205.081 150.693 201.983 155.477 197.069 161.346C195.512 163.206 195.636 161.118 216.334 172.506C225.97 177.807 225.579 177.208 225.843 177.036C226.3 176.734 222.052 160.732 218.74 146.662C218.213 146.7 217.675 146.718 217.121 146.718H217.119V146.717Z" fill="#1D1D1D"/>
<path d="M200.411 133.022C188.302 136.153 166.211 142.064 126.802 152.286C127.415 153.022 150.227 165.297 150.195 165.278C178.721 179.649 187.739 172.765 205.924 143.056C202.828 140.506 201.004 136.881 200.411 133.022Z" fill="#1D1D1D"/>
<path d="M232.453 129.755C232.498 149.685 202.704 149.965 201.972 130.811C201.619 121.535 208.655 114.543 217.514 114.56C225.751 114.574 232.435 121.415 232.453 129.755ZM217.022 116.493C199.451 116.611 199.605 143.159 217.505 143.031C224.401 142.981 230.667 137.036 230.468 129.365C230.285 122.24 224.364 116.443 217.022 116.494V116.493Z" fill="url(#paint0_linear_168_1971)"/>
<path d="M218.29 137.71C210.805 135.245 209.386 119.833 216.87 122.2C224.772 124.698 225.943 140.231 218.29 137.71ZM213.606 125.999C213.196 133.27 220.345 139.274 221.463 134.144C223.008 127.045 213.954 119.839 213.606 125.999Z" fill="url(#paint1_linear_168_1971)"/>
<path d="M168.24 97.7771C166.775 101.42 162.962 101.017 162.271 96.9686C161.681 93.5276 163.008 68.2605 167.24 74.2063C169.239 77.0205 170.003 93.3862 168.241 97.7753L168.24 97.7771Z" fill="#1D1D1D"/>
<path d="M144.52 102.637C144.774 105.115 142.354 105.729 140.806 104.645C139.037 103.406 133.345 96.3436 131.027 90.4707C130.14 88.2241 131.842 86.4657 134.009 87.9768C140.233 92.324 144.505 99.6568 144.52 102.637Z" fill="#1D1D1D"/>
<path d="M200.347 85.7567C199.745 89.039 193.366 105.833 188.572 102.159C187.693 101.485 187.622 100.551 187.923 99.5866C190.27 92.0575 200.265 78.5608 200.347 85.7567Z" fill="#1D1D1D"/>
<defs>
<linearGradient id="paint0_linear_168_1971" x1="217.206" y1="114.56" x2="217.206" y2="144.944" gradientUnits="userSpaceOnUse">
<stop stop-color="#2984E7"/>
<stop offset="1" stop-color="#F14397"/>
</linearGradient>
<linearGradient id="paint1_linear_168_1971" x1="217.685" y1="121.954" x2="217.685" y2="137.986" gradientUnits="userSpaceOnUse">
<stop stop-color="#2984E7"/>
<stop offset="1" stop-color="#F14397"/>
</linearGradient>
</defs>
</svg>
