<svg width="283" height="283" viewBox="0 0 283 283" fill="none" xmlns="http://www.w3.org/2000/svg">
<ellipse cx="139.803" cy="124.194" rx="120.801" ry="116.05" fill="white"/>
<path d="M33.3658 107.237C48.0254 116.361 42.2066 133.773 40.0408 143.536C40.5581 147.484 44.2465 155.23 43.0948 156.77L40.7829 157.523C41.157 156.723 37.4467 154.155 37.3261 152.698C36.9974 148.727 36.6605 145.908 35.9689 145.233C29.74 143.408 26.692 143.897 18.7422 138.956C8.94192 132.864 7.56943 122.037 7.59691 118.901C9.4659 110.902 17.0482 97.0804 33.3658 107.237Z" fill="url(#paint0_linear_1_227)"/>
<path d="M62.4778 51.638C68.5102 67.8171 51.4178 84.1463 43.7394 90.5524C41.7374 93.994 45.5917 97.8413 43.7392 98.357L37.6313 95.9816C38.4164 95.5765 39.7953 93.1368 40.5897 91.9096C42.7554 88.5647 43.8746 86.4677 43.7394 85.5108C39.9226 80.2609 34.7988 76.5861 31.5235 67.8173C27.4858 57.0074 33.0129 47.5973 34.9507 45.1309C41.3168 39.9397 55.7631 33.6288 62.4778 51.638Z" fill="url(#paint1_linear_1_227)"/>
<path d="M244.316 60.4006C232.915 75.874 242.28 95.5776 248.388 103.495C248.388 107.296 251.782 110.056 253.478 110.96L256.193 107.906C255.514 107.341 253.818 106.074 252.46 105.531C251.103 104.988 251.442 103.043 251.782 102.138C256.645 97.8397 267.527 87.2074 272.141 79.0635C276.756 70.9196 275.195 63.2283 273.838 60.4006C268.748 53.9533 255.718 44.9272 244.316 60.4006Z" fill="url(#paint2_linear_1_227)"/>
<path d="M129.349 194.632C129.349 194.632 123.627 174.844 127.235 173.928C136.796 170.978 147.087 171.465 156.326 175.306C157.046 175.583 157.663 176.077 158.091 176.719C158.519 177.361 158.737 178.12 158.716 178.891C158.519 184.358 157.148 189.718 154.695 194.608C154.718 194.632 134.612 192.173 129.349 194.632Z" fill="#191919"/>
<path d="M50.5155 44.3956C44.9546 42.3962 36.6867 49.3382 34.7524 54.3006C32.4884 60.1163 35.4599 70.6665 42.6099 71.0287C43.1195 71.0213 43.6207 70.8984 44.076 70.6693C44.5312 70.4402 44.9287 70.1109 45.2383 69.7062C45.548 69.3014 45.7619 68.8317 45.864 68.3324C45.9661 67.8331 45.9536 67.3172 45.8276 66.8234C45.1385 63.3071 42.3085 61.128 42.6495 57.166C42.8686 55.412 43.5158 53.7389 44.5343 52.2941C46.146 49.907 47.9303 49.5122 50.5084 48.7326C50.969 48.5871 51.3713 48.2987 51.6572 47.9094C51.943 47.52 52.0975 47.0497 52.0983 46.5667C52.0991 46.0837 51.9461 45.6129 51.6616 45.2226C51.377 44.8323 50.9756 44.5426 50.5155 44.3956Z" fill="#191919"/>
<path d="M16.0857 120.387C17.9832 118.208 16.1253 117.163 21.624 117.101C24.6111 117.066 25.6935 119.365 28.3339 120.019C28.8385 120.156 29.3739 120.124 29.8589 119.929C30.344 119.734 30.7525 119.387 31.0224 118.939C33.4279 113.292 25.8987 109.408 21.1868 109.77C19.7916 109.858 18.4316 110.245 17.1988 110.904C15.966 111.563 14.8892 112.479 14.041 113.591C12.5213 115.398 11.4827 117.841 12.892 119.992C13.0543 120.255 13.2736 120.478 13.5336 120.645C13.7936 120.811 14.0877 120.917 14.3942 120.955C14.7007 120.993 15.0118 120.962 15.3046 120.863C15.5974 120.765 15.8643 120.602 16.0857 120.387Z" fill="#191919"/>
<path d="M256.354 62.5939C256.999 62.5939 257.63 62.4025 258.167 62.0439C258.704 61.6854 259.122 61.1758 259.369 60.5796C259.616 59.9833 259.68 59.3272 259.554 58.6943C259.429 58.0613 259.118 57.4799 258.661 57.0236C258.205 56.5672 257.624 56.2565 256.991 56.1306C256.358 56.0047 255.702 56.0693 255.105 56.3163C254.509 56.5632 254 56.9814 253.641 57.518C253.282 58.0546 253.091 58.6855 253.091 59.3309C253.1 60.1934 253.447 61.018 254.057 61.628C254.667 62.2379 255.492 62.5847 256.354 62.5939Z" fill="#191919"/>
<path d="M31.9408 126.958C32.5916 126.954 33.2145 126.694 33.6748 126.234C34.1351 125.774 34.3956 125.151 34.4001 124.5C34.3878 123.852 34.1247 123.233 33.6662 122.775C33.2076 122.316 32.5892 122.053 31.9408 122.041C31.2902 122.046 30.6676 122.306 30.2077 122.767C29.7477 123.227 29.4874 123.85 29.483 124.5C29.4949 125.148 29.7577 125.767 30.2161 126.225C30.6745 126.683 31.2927 126.946 31.9408 126.958Z" fill="#191919"/>
<path d="M249.323 63.1006C241.814 66.9013 240.857 81.2833 245.187 87.5956C245.435 87.9339 245.799 88.1684 246.21 88.2541C246.62 88.3398 247.048 88.2705 247.41 88.0596C247.773 87.8488 248.044 87.5113 248.173 87.1121C248.301 86.7129 248.278 86.2803 248.106 85.8976C246.564 82.9007 247.416 78.6132 247.922 75.3969C248.474 71.8793 249.8 68.5282 251.805 65.5853C252.86 63.9751 250.816 62.3436 249.323 63.1006Z" fill="#191919"/>
<path d="M219.151 103.635C220.491 102.865 222.029 102.514 223.57 102.624C225.524 103.098 225.153 104.605 225.637 106.162C225.752 106.536 225.983 106.863 226.298 107.096C226.612 107.328 226.993 107.454 227.384 107.454C227.775 107.454 228.156 107.328 228.471 107.096C228.785 106.863 229.017 106.536 229.131 106.162C230.121 103.381 228.075 100.297 225.569 99.1518C224.219 98.5488 222.718 98.3667 221.263 98.6292C219.808 98.8917 218.465 99.5866 217.411 100.623C216.202 101.789 217.453 104.331 219.151 103.635Z" fill="#191919"/>
<path d="M110.851 72.2231C103.796 70.9 102.392 70.4458 96.9487 67.7418C96.7627 67.6502 96.5599 67.5977 96.3529 67.5877C96.1458 67.5777 95.9389 67.6103 95.7449 67.6835C95.551 67.7568 95.3741 67.869 95.2253 68.0134C95.0766 68.1578 94.959 68.3312 94.88 68.5228L87.0678 88.3541C86.9684 88.6157 86.9437 88.8998 86.9964 89.1746C87.0491 89.4495 87.1772 89.7043 87.3663 89.9106L97.0181 100.435C97.2619 100.703 97.5953 100.871 97.9552 100.91C98.315 100.948 98.6764 100.852 98.9707 100.642C102.092 98.4529 110.915 92.5977 111.012 92.1632C111.186 91.3793 111.733 78.1632 112.045 73.7796C112.073 73.4186 111.966 73.0602 111.746 72.773C111.525 72.4858 111.207 72.29 110.851 72.2231ZM89.0035 86.7678C91.6733 81.9682 94.0502 77.0114 96.1209 71.9245C96.1641 71.8339 96.2379 71.7616 96.3294 71.7203C96.4208 71.679 96.5239 71.6714 96.6204 71.6989C96.7169 71.7263 96.8005 71.7871 96.8565 71.8704C96.9124 71.9536 96.9371 72.054 96.9261 72.1537C95.5111 77.4699 92.4731 82.4648 89.6417 87.1527C89.5844 87.2229 89.5037 87.2701 89.4144 87.2856C89.3251 87.3011 89.2332 87.2839 89.1556 87.2371C89.078 87.1903 89.0199 87.1171 88.992 87.0309C88.964 86.9447 88.9681 86.8513 89.0035 86.7678ZM99.2297 97.2473C97.5317 96.7294 96.5836 94.8135 95.4601 93.5471C93.8797 91.848 92.1581 90.2859 90.3138 88.8776C89.9699 88.5946 90.4043 88.0541 90.7722 88.2805C95.7686 91.3539 97.1001 94.4697 99.6202 96.5526C99.9414 96.8271 99.5919 97.3591 99.224 97.2473H99.2297Z" fill="#191919"/>
<path d="M154.19 78.4037C154.173 78.2915 154.133 78.1839 154.074 78.0872C154.014 77.9905 153.936 77.9067 153.844 77.8408C153.752 77.7748 153.647 77.728 153.536 77.7032C153.425 77.6784 153.311 77.676 153.199 77.6962C147.126 78.6832 140.913 78.4013 134.954 76.8684C134.831 76.8308 134.7 76.8223 134.573 76.8436C134.446 76.8648 134.325 76.9152 134.22 76.9909C134.116 77.0665 134.03 77.1653 133.97 77.2796C133.91 77.3939 133.877 77.5205 133.875 77.6495L133.187 100.946C133.183 101.115 133.228 101.282 133.318 101.425C133.408 101.568 133.538 101.681 133.692 101.751L146.607 107.519C146.768 107.586 146.945 107.605 147.117 107.572C147.289 107.54 147.447 107.457 147.572 107.335L156.556 97.9816C156.647 97.89 156.715 97.7783 156.755 97.6554C156.795 97.5325 156.806 97.4019 156.786 97.2741L154.19 78.4037ZM145.526 104.348C142.272 102.705 138.936 101.232 135.53 99.9357C135.482 99.9222 135.437 99.8992 135.397 99.8682C135.358 99.8372 135.325 99.7987 135.3 99.755C135.276 99.7112 135.26 99.663 135.254 99.6132C135.248 99.5634 135.252 99.5129 135.265 99.4646C135.279 99.4162 135.302 99.3711 135.333 99.3316C135.364 99.2922 135.403 99.2592 135.446 99.2347C135.49 99.2101 135.538 99.1944 135.588 99.1884C135.638 99.1825 135.688 99.1864 135.737 99.2C137.666 99.6448 139.533 100.324 141.298 101.222C142.922 101.879 144.51 102.623 146.055 103.451C146.629 103.77 146.102 104.621 145.526 104.348ZM153.66 95.1332C152.025 90.8232 149.915 85.2976 150.42 80.5403C145.432 81.5038 140.286 81.2519 135.415 79.806C135.319 79.7753 135.238 79.7083 135.189 79.6192C135.14 79.53 135.128 79.4256 135.155 79.3276C135.182 79.2297 135.245 79.1458 135.332 79.0936C135.419 79.0414 135.523 79.0249 135.622 79.0475C140.6 79.8283 145.657 79.9828 150.673 79.5074C150.792 79.4999 150.908 79.5389 150.999 79.616C151.089 79.6932 151.145 79.8024 151.156 79.9206C151.156 79.9432 151.179 79.9658 151.179 79.9899C151.679 85.0757 152.901 90.0642 154.809 94.805C155.084 95.5238 153.932 95.8464 153.66 95.1332Z" fill="#191919"/>
<path d="M173.4 93.0645C174.77 93.1155 176.124 92.7525 177.285 92.0229C178.446 91.2932 179.36 90.2306 179.909 88.9738C180.598 87.6182 183.741 85.9697 187.125 88.9738C188.863 90.4846 191.121 91.2595 193.421 91.1345L188.153 73.5092C188.093 73.3116 187.992 73.1286 187.857 72.9721C187.723 72.8155 187.557 72.6888 187.37 72.6001C187.184 72.5114 186.981 72.4626 186.774 72.4569C186.568 72.4511 186.363 72.4886 186.172 72.5668C179.804 75.0954 179.256 75.1351 172.085 75.9911C171.726 76.0318 171.394 76.2005 171.149 76.4664C170.904 76.7323 170.763 77.0774 170.752 77.4387C170.638 81.2309 170.247 91.617 170.224 94.8573C170.514 94.2756 170.972 93.794 171.537 93.4745C172.103 93.1549 172.752 93.0122 173.4 93.0645ZM174.045 78.2198C177.795 77.4358 181.544 76.7383 185.212 75.6728C185.29 75.6537 185.371 75.6575 185.447 75.6839C185.522 75.7103 185.588 75.758 185.637 75.8213C185.686 75.8846 185.715 75.9607 185.721 76.0404C185.727 76.12 185.71 76.1998 185.672 76.2699C186.222 77.3495 186.848 78.3811 187.396 79.4635C187.435 79.5453 187.443 79.6389 187.416 79.7259C187.39 79.8129 187.332 79.8869 187.254 79.9332C187.176 79.9795 187.083 79.9947 186.994 79.9759C186.906 79.957 186.827 79.9055 186.774 79.8314C186.041 78.8402 185.453 77.749 185.028 76.5911C181.467 77.6771 177.823 78.4689 174.133 78.9584C173.745 79.0037 173.65 78.3018 174.045 78.2198Z" fill="#191919"/>
<path d="M103.176 177.191C110.841 164.795 123.213 155.773 137.783 153.753C138.243 153.687 138.243 152.976 137.783 153.045C130.096 154.103 123.511 155.664 117.056 160.215C110.968 164.531 105.926 170.16 102.304 176.685C102.249 176.8 102.239 176.932 102.276 177.053C102.314 177.175 102.396 177.278 102.506 177.342C102.616 177.406 102.747 177.426 102.871 177.398C102.995 177.37 103.104 177.296 103.176 177.191Z" fill="#191919"/>
<path d="M140.263 153.912C142.574 151.58 143.277 147.753 143.136 144.561C143.131 144.469 143.094 144.383 143.032 144.316C142.97 144.249 142.886 144.207 142.795 144.196C142.705 144.185 142.613 144.206 142.536 144.256C142.46 144.306 142.404 144.381 142.377 144.469C141.916 146.013 141.601 147.598 141.436 149.202C141.096 150.712 140.489 152.15 139.644 153.447C139.599 153.529 139.586 153.625 139.606 153.717C139.626 153.808 139.678 153.89 139.753 153.946C139.828 154.003 139.921 154.03 140.014 154.024C140.108 154.018 140.196 153.978 140.263 153.912Z" fill="#191919"/>
<path d="M102.602 188.887C110.714 188.482 118.437 184.025 123.88 178.133C123.955 178.049 123.994 177.94 123.991 177.828C123.987 177.716 123.941 177.609 123.862 177.53C123.783 177.451 123.676 177.405 123.564 177.401C123.452 177.398 123.343 177.437 123.259 177.512C117.769 182.553 110.827 186.699 103.221 187.325C93.5018 188.123 86.4891 182.824 80.7951 175.512C80.4725 175.099 79.7593 175.628 80.0593 176.087C85.0811 183.791 93.158 189.357 102.602 188.887Z" fill="#191919"/>
<path d="M82.885 162.736C81.4177 163.57 86.3065 167.291 88.1941 168.412C90.993 170.074 93.7126 171.821 96.4195 173.629C96.7916 173.877 97.1935 173.337 96.8794 173.032C93.0872 169.332 87.8715 167.424 84.3566 163.564C88.7431 159.381 80.0961 152.415 75.5327 155.476C75.2143 155.688 75.2808 156.359 75.7619 156.302C76.7111 155.994 77.7157 155.894 78.7071 156.009C79.6984 156.124 80.6534 156.451 81.5068 156.969C83.4482 158.03 85.6952 161.14 82.885 162.736Z" fill="#191919"/>
<path d="M68.8001 163.495C67.4432 164.436 65.8032 166.142 66.6621 167.881C66.703 167.951 66.7636 168.008 66.8364 168.044C66.9091 168.08 66.9909 168.094 67.0715 168.085C67.1522 168.075 67.2282 168.042 67.2903 167.989C67.3523 167.937 67.3976 167.867 67.4205 167.789C67.5223 167.071 67.8001 166.389 68.2292 165.803C68.6582 165.218 69.2252 164.748 69.8798 164.434C71.5962 163.458 72.8966 163.955 74.613 164.618C75.0742 164.797 75.2582 164.11 74.9342 163.86C74.1264 163.072 73.0617 162.601 71.9352 162.534C70.8087 162.467 69.6957 162.808 68.8001 163.495Z" fill="#191919"/>
<path d="M75.1874 176.134C75.5567 176.001 75.5327 175.354 75.0954 175.398C72.7748 175.635 67.5266 176.547 67.7191 172.732C67.8733 169.675 70.6906 168.778 73.2574 169.033C73.7172 169.078 73.8361 168.427 73.4866 168.205C70.3736 166.224 66.5701 169.148 66.2942 172.48C65.8796 177.512 71.94 177.299 75.1874 176.134Z" fill="#191919"/>
<path d="M145.113 136.381C145.232 136.343 145.335 136.265 145.402 136.159C145.469 136.054 145.497 135.928 145.48 135.803C145.463 135.679 145.402 135.565 145.309 135.482C145.216 135.398 145.096 135.35 144.971 135.346C144.21 135.27 143.405 135.488 143.04 134.61C142.906 134.185 142.821 133.745 142.788 133.3C142.635 132.291 142.891 131.319 142.788 130.337C142.783 130.247 142.75 130.161 142.694 130.091C142.637 130.022 142.56 129.972 142.473 129.948C142.386 129.925 142.294 129.93 142.21 129.963C142.127 129.995 142.055 130.053 142.007 130.129C141.324 131.657 141.224 133.381 141.724 134.978C141.852 135.295 142.041 135.583 142.282 135.825C142.522 136.067 142.809 136.259 143.124 136.39C143.439 136.521 143.778 136.587 144.119 136.585C144.461 136.584 144.798 136.514 145.113 136.381Z" fill="#191919"/>
<path d="M149.616 128.43C148.47 128.672 147.388 129.157 146.445 129.853C146.39 129.909 146.352 129.98 146.337 130.058C146.321 130.135 146.329 130.215 146.358 130.288C146.387 130.362 146.437 130.425 146.502 130.47C146.566 130.515 146.643 130.541 146.721 130.544C147.847 130.482 148.953 130.225 149.99 129.785C150.809 129.48 150.488 128.199 149.616 128.43Z" fill="#191919"/>
<path d="M138.127 128.567C138.031 128.57 137.938 128.598 137.856 128.647C137.773 128.696 137.705 128.765 137.657 128.848C137.609 128.93 137.582 129.024 137.58 129.119C137.578 129.215 137.6 129.31 137.644 129.395C138.405 130.184 139.443 130.646 140.539 130.681C140.637 130.68 140.733 130.65 140.814 130.595C140.895 130.54 140.958 130.462 140.995 130.371C141.031 130.281 141.041 130.181 141.021 130.085C141.001 129.989 140.954 129.901 140.884 129.832C140.454 129.53 139.992 129.276 139.506 129.073C139.098 128.788 138.623 128.613 138.127 128.567Z" fill="#191919"/>
<path d="M145.779 139.965C146.252 140.041 146.736 140.021 147.202 139.907C147.668 139.792 148.106 139.585 148.49 139.298C149.155 138.768 149.931 137.922 149.754 137C149.735 136.937 149.702 136.878 149.657 136.829C149.612 136.78 149.556 136.742 149.494 136.717C149.432 136.693 149.366 136.683 149.299 136.688C149.233 136.693 149.169 136.713 149.111 136.747C148.545 137.142 148.351 137.879 147.846 138.356C147.227 138.863 146.463 139.16 145.664 139.205C145.227 139.271 145.366 139.944 145.779 139.965Z" fill="#191919"/>
<path d="M174.045 167.379C177.26 171.907 180.717 176.422 182.593 181.694C182.773 182.201 183.583 181.994 183.397 181.464C180.961 174.744 177.23 168.569 172.413 163.288C168.592 159.262 163.91 156.152 158.718 154.188C157.083 153.404 155.352 152.841 153.57 152.511C153.369 152.495 153.169 152.464 152.973 152.42C152.949 152.095 152.98 151.769 153.065 151.454C153.581 148.807 153.918 146.127 154.075 143.434C154.358 141.453 154.604 139.505 154.834 137.528L162.394 137.115C162.394 137.115 167.655 114.125 149.411 111.839C131.168 109.552 130.521 134.817 130.521 134.817C131.323 135.66 132.339 136.269 133.462 136.577C134.584 136.884 135.769 136.88 136.888 136.563C137.439 138.754 138.632 140.731 140.313 142.24C141.853 143.266 143.673 143.792 145.523 143.747C147.374 143.702 149.165 143.087 150.654 141.987C150.948 141.729 150.584 141.298 150.239 141.458C146.518 143.481 141.363 142.448 139.278 138.793C136.951 134.707 137.187 129.596 137.624 125.028C137.067 124.799 136.593 124.404 136.269 123.896C136.219 123.806 136.2 123.703 136.214 123.601C136.228 123.5 136.275 123.405 136.348 123.333C136.421 123.26 136.515 123.213 136.616 123.199C136.718 123.185 136.821 123.204 136.911 123.254C144.568 127.508 153.438 123.606 154.859 123.537L155.777 130.384C155.471 130.379 155.167 130.434 154.882 130.545C154.772 130.575 154.679 130.648 154.623 130.747C154.567 130.846 154.553 130.963 154.583 131.073C154.613 131.182 154.686 131.275 154.785 131.331C154.884 131.387 155.001 131.402 155.111 131.371C155.569 131.253 156.056 131.319 156.466 131.555C156.908 131.848 156.909 132.383 156.904 132.866C156.892 133.761 156.125 134.627 155.158 134.176C155.047 134.12 154.922 134.102 154.801 134.125C154.679 134.147 154.569 134.208 154.485 134.299C154.402 134.39 154.351 134.506 154.339 134.629C154.328 134.752 154.357 134.875 154.422 134.98C154.399 135.025 154.352 135.049 154.33 135.094C153.339 140.931 152.735 146.839 151.803 152.673C151.768 152.813 151.789 152.961 151.862 153.085C151.935 153.21 152.054 153.301 152.193 153.339C156.625 154.437 160.848 156.254 164.693 158.716C168.368 160.937 171.55 163.885 174.045 167.379Z" fill="#191919"/>
<path d="M213.958 167.471C214.326 167.406 214.234 166.783 213.866 166.827C211.036 167.164 208.321 168.186 207.845 171.308C207.633 172.455 207.794 173.638 208.305 174.686C200.307 175.995 191.553 176.585 184.039 179.742C183.93 179.772 183.837 179.845 183.781 179.944C183.725 180.043 183.71 180.16 183.741 180.27C183.771 180.379 183.844 180.472 183.943 180.528C184.042 180.584 184.159 180.599 184.268 180.568C192.521 178.729 200.704 176.818 209.063 175.582C209.407 175.531 209.488 175.119 209.362 174.846C207.602 170.917 209.876 168.186 213.958 167.471Z" fill="#191919"/>
<path d="M225.354 167.792C223.781 164.811 218.644 167.471 216.945 168.986C216.604 169.291 217.038 169.818 217.427 169.607C219.806 168.32 222.182 167.151 224.849 168.297C224.92 168.334 225 168.347 225.079 168.334C225.157 168.322 225.23 168.285 225.286 168.229C225.342 168.173 225.379 168.1 225.392 168.022C225.404 167.943 225.391 167.863 225.354 167.792Z" fill="#191919"/>
<path d="M216.622 172.157C216.393 172.48 216.828 172.844 217.129 172.664C219.179 171.44 222.413 169.999 224.757 171.468C224.84 171.512 224.935 171.524 225.026 171.503C225.117 171.483 225.197 171.43 225.252 171.355C225.308 171.28 225.335 171.188 225.328 171.095C225.322 171.002 225.282 170.915 225.217 170.848C223.644 169.329 218.483 169.562 216.622 172.157Z" fill="#191919"/>
<path d="M216.714 176.026C216.369 176.231 216.6 176.875 217.013 176.715C218.417 176.166 225.852 173.635 225.309 177.611C225.146 178.805 222.253 181.24 221.38 181.863C216.961 185.011 206.123 188.727 198.653 190.801C191.874 192.683 184.474 194.298 177.904 190.801C172.341 187.84 168.989 182.736 165.494 177.725C165.42 177.611 165.305 177.529 165.173 177.497C165.041 177.465 164.901 177.485 164.783 177.553C164.665 177.621 164.578 177.732 164.54 177.863C164.501 177.993 164.514 178.133 164.576 178.255C167.955 184.64 173.468 191.033 180.565 193.237C189.02 195.86 198.783 192.17 206.784 189.491C212.161 187.69 225.426 182.8 226.311 177.22C227.027 172.771 218.528 174.935 216.714 176.026Z" fill="#191919"/>
<path d="M101.199 125.097C101.165 126.13 101.341 127.166 101.383 128.176C101.381 129.124 101.45 130.07 101.59 131.006C101.748 131.789 102.786 131.513 102.854 130.846C102.95 128.86 102.677 126.874 102.05 124.987C102.02 124.888 101.957 124.803 101.87 124.747C101.784 124.691 101.68 124.667 101.578 124.68C101.475 124.694 101.381 124.743 101.312 124.819C101.243 124.896 101.203 124.994 101.199 125.097Z" fill="#191919"/>
<path d="M104.256 123.167C103.394 124.865 104.727 125.836 105.427 125.189C105.673 124.916 105.82 124.569 105.846 124.203C105.872 123.836 105.774 123.472 105.569 123.167C105.503 123.051 105.407 122.955 105.292 122.888C105.177 122.821 105.046 122.786 104.912 122.786C104.779 122.786 104.648 122.821 104.533 122.888C104.417 122.955 104.322 123.051 104.256 123.167Z" fill="#191919"/>
<path d="M98.167 124.454C97.9353 124.681 97.7901 124.982 97.7566 125.306C97.723 125.629 97.8031 125.953 97.9831 126.224C98.0645 126.357 98.1828 126.465 98.3237 126.533C98.4647 126.601 98.6223 126.627 98.7777 126.607C98.933 126.588 99.0794 126.524 99.1992 126.423C99.3191 126.323 99.4073 126.189 99.4533 126.04C99.8098 124.803 98.7302 123.786 98.167 124.454Z" fill="#191919"/>
<path d="M107.682 130.773C107.681 130.666 107.65 130.562 107.591 130.474C107.532 130.385 107.448 130.316 107.351 130.274C107.253 130.232 107.145 130.221 107.04 130.24C106.935 130.259 106.839 130.309 106.762 130.382C106.367 130.815 106.182 131.387 105.771 131.785C105.188 132.351 104.621 132.154 103.932 131.944C103.799 131.916 103.66 131.929 103.536 131.984C103.411 132.038 103.307 132.131 103.238 132.248C103.17 132.365 103.14 132.501 103.152 132.636C103.165 132.772 103.221 132.9 103.311 133.001C104.975 134.719 107.476 132.638 107.682 130.773Z" fill="#191919"/>
<path d="M130.866 146.928C126.522 143.549 119.583 140.584 113.953 140.723C113.953 139.987 113.93 139.252 113.885 138.517C114.666 138.816 116.32 139.045 118.271 136.702C118.647 136.344 118.931 135.901 119.1 135.41C119.268 134.919 119.316 134.395 119.24 133.881C119.163 133.368 118.964 132.88 118.66 132.46C118.355 132.04 117.954 131.699 117.49 131.466C118.52 131.129 119.408 130.457 120.012 129.558C120.616 128.658 120.902 127.582 120.824 126.501C120.916 122.318 116.481 121.629 116.481 121.629C116.481 121.629 118.503 120.78 118.273 116.643C118.272 115.688 117.896 114.772 117.225 114.092C116.554 113.413 115.643 113.025 114.689 113.012C114.388 113.573 113.923 114.03 113.357 114.321C112.791 114.612 112.149 114.725 111.518 114.643C111.035 114.551 111.15 113.77 111.632 113.794C112.764 113.817 113.217 113.105 113.907 112.461C114.229 111.496 114.527 109.429 112.209 107.084C109.016 103.868 107.131 105.177 107.131 105.177C100.237 98.9962 97.2048 104.281 97.2048 104.281C95.4518 103.724 93.5876 103.614 91.7811 103.96C91.7896 101.136 91.6517 98.3127 91.3679 95.5025C91.3212 94.8601 90.3336 94.8375 90.3562 95.5025C90.4255 98.5137 90.3336 101.431 90.5401 104.396C89.6213 104.865 88.8261 105.545 88.2193 106.379C87.6124 107.214 87.2111 108.18 87.0479 109.198C78.7985 109.521 81.487 118.82 81.9921 120.32C82.7381 120.237 83.4422 119.933 84.0142 119.447C84.0883 119.379 84.186 119.342 84.2868 119.344C84.3876 119.346 84.4837 119.387 84.555 119.458C84.6263 119.529 84.6673 119.626 84.6693 119.726C84.6714 119.827 84.6344 119.925 84.566 119.999C83.6324 120.886 82.4063 121.401 81.1191 121.447C76.8911 126.018 81.8535 130.798 83.9491 132.484C84.6687 132.049 85.4717 131.771 86.3058 131.666C87.1399 131.562 87.9867 131.634 88.7912 131.878C89.2511 132.038 89.2044 132.774 88.6766 132.751C87.8902 132.658 87.0957 132.658 86.3093 132.751C85.7666 132.882 85.236 133.058 84.7231 133.279C83.0251 137.989 87.9875 140.541 91.4797 141.735C89.2025 142.295 87.0195 143.185 85.0004 144.378C84.9039 144.438 84.832 144.531 84.7976 144.64C84.7632 144.748 84.7685 144.865 84.8126 144.97C84.8566 145.075 84.9366 145.161 85.0381 145.213C85.1397 145.264 85.2562 145.278 85.3669 145.251C89.5765 144.077 93.4324 142.766 97.018 142.103C98.6623 149.036 110.984 152.659 118.479 142.724C122.571 143.986 126.533 145.632 130.314 147.641C130.746 147.846 131.302 147.249 130.866 146.928ZM94.3055 113.515C93.6082 113.915 92.8106 114.106 92.0078 114.066C91.205 114.025 90.4308 113.755 89.7775 113.286C89.6892 113.233 89.6253 113.147 89.5992 113.047C89.5732 112.948 89.587 112.842 89.6379 112.752C89.6887 112.662 89.7725 112.596 89.8715 112.567C89.9705 112.538 90.0769 112.549 90.168 112.597C90.6827 112.893 91.2627 113.056 91.856 113.073C92.4493 113.089 93.0375 112.959 93.5679 112.692C94.0983 112.426 94.5545 112.032 94.8956 111.547C95.2366 111.061 95.452 110.498 95.5224 109.909C95.5268 109.804 95.5681 109.703 95.639 109.626C95.71 109.548 95.806 109.498 95.9102 109.484C96.0144 109.47 96.1202 109.494 96.2089 109.55C96.2977 109.607 96.3637 109.692 96.3954 109.793C96.5255 110.559 96.389 111.346 96.0086 112.024C95.6283 112.701 95.0271 113.228 94.3055 113.515ZM97.8911 141.987L102.739 141.114L102.992 137.528C103.629 137.555 104.268 137.524 104.9 137.436C105.382 137.368 105.427 136.655 104.9 136.655C101.89 136.587 99.224 135.69 97.6151 132.842C96.6246 131.012 95.9794 125.324 96.1209 121.282C100.741 123.764 101.639 116.917 101.639 116.917C104.741 120.225 107.131 115.652 107.131 115.652C105.982 119.812 110.141 119.375 110.141 119.375C109.754 121.95 110.882 122.778 112.181 123.149C112.173 123.193 112.174 123.238 112.184 123.282C112.194 123.326 112.213 123.367 112.24 123.403C112.266 123.439 112.3 123.469 112.338 123.492C112.377 123.515 112.42 123.529 112.464 123.535C113.245 123.65 114.601 123.879 114.578 124.913C114.554 126.108 113.153 126.384 112.234 126.43C112.078 126.451 111.932 126.52 111.817 126.627C111.702 126.734 111.623 126.874 111.591 127.027C111.56 131.845 111.99 136.654 112.877 141.39C112.883 141.445 112.901 141.499 112.928 141.548C112.956 141.597 112.994 141.639 113.039 141.673C113.363 142.159 113.773 141.65 117.496 142.499C111.953 147.548 101.958 150.306 97.8911 141.987Z" fill="#191919"/>
<path d="M188.75 106.462C189.3 106.32 189.853 106.165 190.404 106.002C190.891 105.939 191.347 105.731 191.714 105.405C191.765 105.35 191.804 105.285 191.828 105.214C191.851 105.142 191.859 105.067 191.85 104.992C191.841 104.918 191.816 104.846 191.777 104.782C191.738 104.718 191.685 104.664 191.622 104.622C190.67 103.937 189.232 105.197 188.382 105.589C187.853 105.795 188.22 106.596 188.75 106.462Z" fill="#191919"/>
<path d="M180.729 106.254C181.66 106.535 182.63 106.667 183.602 106.646C184.176 106.646 184.36 105.682 183.743 105.589C182.838 105.439 181.947 105.216 181.078 104.922C180.246 104.652 179.882 105.993 180.729 106.254Z" fill="#191919"/>
<path d="M186.106 110.322C185.303 110.18 184.982 111.423 185.763 111.54C187.578 111.81 188.685 110.619 187.969 108.852C187.453 107.595 186.773 106.413 185.947 105.335C185.645 104.946 185.023 105.453 185.256 105.863C185.64 106.535 185.964 107.266 186.313 107.977C186.658 108.598 187.898 110.625 186.106 110.322Z" fill="#191919"/>
<path d="M80.771 150.415C71.6882 111.467 75.8695 93.7579 75.9855 70.5915C75.9855 69.9251 75.0601 69.9704 74.9752 70.5915C71.2442 97.3354 72.9007 124.555 79.847 150.649C79.8625 150.71 79.8897 150.767 79.9272 150.817C79.9646 150.867 80.0116 150.91 80.0654 150.942C80.1192 150.974 80.1788 150.995 80.2407 151.004C80.3027 151.013 80.3658 151.009 80.4265 150.994C80.4872 150.979 80.5442 150.951 80.5943 150.914C80.6445 150.876 80.6868 150.829 80.7188 150.776C80.7508 150.722 80.7718 150.662 80.7808 150.6C80.7898 150.538 80.7865 150.475 80.771 150.415Z" fill="#191919"/>
<path d="M76.9335 71.142C77.075 71.1688 87.1965 72.0065 87.3437 72.0164C87.4269 74.7038 87.9528 77.3591 88.9002 79.8753C88.9293 79.9526 88.9837 80.0178 89.0545 80.0603C89.1253 80.1028 89.2084 80.1201 89.2903 80.1095C89.3722 80.0988 89.4482 80.0608 89.5058 80.0016C89.5634 79.9424 89.5993 79.8655 89.6077 79.7834C89.7184 76.9682 89.2811 74.1583 88.32 71.5099C88.3199 71.389 88.2822 71.2711 88.2123 71.1726C88.1423 71.074 88.0435 70.9995 87.9295 70.9594C84.3026 70.2758 80.5993 70.0902 76.9222 70.4076C76.5642 70.4939 76.543 71.0967 76.9335 71.142Z" fill="#191919"/>
<path d="M73.1201 65.3729C73.3027 65.7875 73.9465 65.4889 73.8276 65.0743C72.9022 61.7208 71.1604 57.8578 71.2538 54.3203C71.3443 50.9427 73.8927 47.9528 76.9067 52.0224C77.9569 53.8691 78.709 55.87 79.1353 57.9512C79.2768 58.3885 79.9574 58.2059 79.8244 57.7673C78.7688 54.2651 77.2845 45.7398 71.7363 49.5872C70.0383 50.763 69.976 52.6648 70.1798 54.551C70.605 58.2866 71.5965 61.9357 73.1201 65.3729Z" fill="#191919"/>
<path d="M78.0373 51.0815C80.7993 50.0217 82.1167 50.0698 83.1383 53.1276C83.6114 54.9953 83.7668 56.9292 83.5982 58.8484C83.5982 59.331 84.375 59.4682 84.4472 58.9645C84.8377 56.276 84.7458 52.9196 83.1143 50.599C81.804 48.7383 79.3914 49.1755 77.7132 50.316C77.4005 50.5764 77.6028 51.2485 78.0373 51.0815Z" fill="#191919"/>
<path d="M93.956 61.5369C93.2485 61.1011 89.6855 59.0239 88.7205 58.5725C88.2168 58.339 87.7569 59.0536 88.2847 59.3309C89.2752 59.8545 92.8565 62.1609 93.6376 62.7269C93.5923 62.8189 93.5683 62.9321 93.4961 63.0481C91.9976 65.6064 88.0965 65.3956 85.6372 65.3234C85.482 65.3281 85.3333 65.3874 85.2175 65.4909C85.1017 65.5944 85.0262 65.7354 85.0042 65.8892C84.9822 66.0429 85.0152 66.1995 85.0974 66.3313C85.1795 66.4631 85.3055 66.5617 85.4533 66.6097C88.3936 67.487 93.2895 66.5644 94.7597 63.508C100.12 67.071 106.691 69.2147 112.689 70.8207C138.67 77.7811 170.592 73.3083 196.952 67.354C197.551 67.2125 197.275 66.3635 196.701 66.4583C177.121 69.5982 157.081 73.2984 137.139 72.2937C122.869 71.5763 107.725 69.4227 95.1559 62.2472C95.2931 60.8052 95.0902 59.3512 94.5636 58.0018C94.037 56.6524 93.2013 55.4453 92.1236 54.4775C91.7783 54.1789 91.2505 54.6614 91.5944 54.9826C92.4317 55.8442 93.0754 56.8746 93.4827 58.0048C93.89 59.1351 94.0513 60.3393 93.956 61.5369Z" fill="#191919"/>
<path d="M85.4816 49.1756C88.446 50.1165 88.7785 54.9955 87.2051 57.217C86.8626 57.7009 87.5744 58.0915 87.9635 57.7915C91.051 55.4129 89.138 48.4737 85.1335 48.3011C84.4755 48.2728 84.334 48.7157 85.4816 49.1756Z" fill="#191919"/>
<path d="M77.8759 57.057C76.523 56.6637 75.0839 56.6795 73.7399 57.1023C73.3027 57.2155 73.372 57.9513 73.8545 57.9075C74.5039 57.8455 75.1564 57.8224 75.8086 57.8381C76.451 57.8494 77.1175 58.0008 77.7613 57.9796C77.8717 57.9732 77.9763 57.9283 78.057 57.8528C78.1376 57.7772 78.1893 57.6758 78.2029 57.5661C78.2165 57.4564 78.1913 57.3454 78.1316 57.2524C78.0718 57.1594 77.9814 57.0903 77.8759 57.057Z" fill="#191919"/>
<path d="M47.2681 88.8818C43.8197 99.7277 55.0761 106.971 61.6303 113.446C66.7512 118.506 68.4351 124.27 69.6039 131.163C70.7359 137.827 72.7169 144.132 74.2451 150.69C74.3866 151.309 75.3403 151.037 75.1874 150.437C73.7003 144.576 72.0094 138.789 71.074 132.789C70.2406 127.436 69.5289 121.833 66.6394 117.141C60.9285 107.865 44.7635 102.32 48.0039 89.1068C48.0241 89.0571 48.0338 89.0037 48.0323 88.95C48.0308 88.8964 48.0182 88.8436 47.9951 88.7952C47.9721 88.7467 47.9392 88.7035 47.8986 88.6685C47.858 88.6334 47.8105 88.6072 47.7591 88.5915C47.7078 88.5758 47.6538 88.5709 47.6005 88.5773C47.5472 88.5836 47.4958 88.601 47.4496 88.6283C47.4034 88.6557 47.3634 88.6923 47.3321 88.7359C47.3009 88.7796 47.2791 88.8292 47.2681 88.8818Z" fill="#191919"/>
<path d="M78.1745 159.753C77.8915 159.248 77.184 159.686 77.4161 160.191C78.7927 162.978 79.4411 166.069 79.3008 169.175C79.0674 172.368 77.5109 174.324 75.7633 176.827C73.4003 180.207 73.198 183.834 73.3961 187.879C73.4024 187.991 73.4512 188.096 73.5323 188.172C73.6135 188.249 73.7209 188.292 73.8326 188.292C73.9442 188.292 74.0517 188.249 74.1328 188.172C74.214 188.096 74.2628 187.991 74.2691 187.879C74.2818 184.318 74.2691 180.946 76.2501 177.833C77.4925 175.88 79.032 174.295 79.6971 172.019C80.2723 169.976 80.434 167.839 80.1726 165.733C79.9111 163.626 79.2318 161.594 78.1745 159.753Z" fill="#191919"/>
<path d="M75.3714 163.358C75.5752 163.817 76.311 163.499 76.1751 163.012C75.489 160.314 74.127 157.835 72.2176 155.808C70.3081 153.782 67.9141 152.275 65.2612 151.43C62.0207 150.604 58.6727 150.279 55.3336 150.465C52.0253 150.512 42.5278 151.794 41.4539 147.249C41.3194 146.673 40.4719 146.927 40.5808 147.478C41.5939 152.572 50.3019 151.685 54.0007 151.706C58.4353 151.732 62.9647 151.657 67.03 153.706C70.8581 155.843 73.8113 159.26 75.3714 163.358Z" fill="#191919"/>
<path d="M69.2827 186.084C69.0061 185.308 68.8999 184.481 68.9711 183.66C69.0424 182.839 69.2896 182.043 69.6958 181.327C69.7519 181.215 69.7635 181.086 69.7284 180.966C69.6932 180.845 69.6139 180.743 69.5063 180.679C69.3987 180.615 69.2709 180.594 69.1486 180.621C69.0263 180.647 68.9184 180.719 68.8468 180.821C66.9394 183.793 67.2026 188.918 71.2368 190.105C71.3505 190.134 71.4706 190.125 71.5789 190.08C71.6872 190.035 71.7779 189.956 71.8375 189.855C71.897 189.754 71.922 189.636 71.9089 189.519C71.8958 189.403 71.8451 189.294 71.7646 189.208C70.6996 188.38 69.8486 187.309 69.2827 186.084Z" fill="#191919"/>
<path d="M247.322 107.955C239.586 126.555 215.761 139.949 217.266 162.008C217.266 162.139 217.318 162.265 217.411 162.358C217.504 162.451 217.63 162.503 217.761 162.503C217.893 162.503 218.019 162.451 218.112 162.358C218.205 162.265 218.257 162.139 218.257 162.008C218.292 139.396 241.308 128.083 248.13 108.191C248.308 107.656 247.525 107.471 247.322 107.955Z" fill="#191919"/>
<path d="M219.977 131.417C219.97 131.281 219.912 131.154 219.813 131.06C219.715 130.967 219.584 130.915 219.449 130.915C219.313 130.915 219.183 130.967 219.084 131.06C218.986 131.154 218.927 131.281 218.92 131.417C218.261 141.206 204.419 152.773 212.234 162.301C212.534 162.667 213.18 162.183 212.901 161.794C205.741 151.83 220.767 141.649 219.977 131.417Z" fill="#191919"/>
<path d="M259.456 51.5414C248.794 51.6914 240.778 61.2384 239.211 71.1887C237.627 81.2762 239.702 97.082 248.388 103.834C248.866 104.207 249.51 104.294 249.067 103.834C242.247 96.6618 239.582 85.1293 240.015 75.5016C240.502 64.6783 247.391 52.972 259.456 52.798C262.011 52.738 264.541 53.3135 266.819 54.4728C269.098 55.6321 271.052 57.3389 272.508 59.44C275.976 64.7943 274.852 71.7335 272.162 77.1558C267.523 86.5089 259.106 94.5206 251.62 101.606C251.041 102.153 251.92 103.009 252.493 102.479C257.998 97.4234 263.1 91.9453 267.751 86.0943C271.309 81.5875 274.649 76.628 275.656 70.8604C276.144 68.4855 276.089 66.031 275.494 63.6804C274.9 61.3299 273.782 59.144 272.224 57.2863C270.666 55.4285 268.709 53.9468 266.498 52.952C264.287 51.9572 261.879 51.475 259.456 51.5414Z" fill="#191919"/>
<path d="M256.469 107.398C255.069 106.45 253.611 105.59 252.102 104.826C251.594 104.6 250.912 105.25 251.436 105.675C252.636 106.573 253.904 107.377 255.228 108.08C254.651 108.837 254.029 109.558 253.366 110.24C251.642 108.747 248.999 106.494 249.184 104.266C249.23 103.714 248.311 103.599 248.219 104.124C247.713 107.043 250.888 110.117 253.067 111.624C253.138 111.666 253.216 111.693 253.297 111.704C253.379 111.715 253.461 111.71 253.541 111.689C253.62 111.667 253.694 111.63 253.758 111.579C253.823 111.528 253.877 111.465 253.916 111.393C254.675 110.313 255.709 109.348 256.559 108.337C256.626 108.274 256.677 108.198 256.709 108.112C256.741 108.027 256.753 107.936 256.744 107.845C256.736 107.755 256.706 107.667 256.658 107.59C256.611 107.512 256.546 107.447 256.469 107.398Z" fill="#191919"/>
<path d="M209.959 106.3C209.369 113.309 213.932 121.227 219.701 125.028C220.187 125.348 220.734 124.618 220.323 124.224C216.209 120.295 212.721 116.204 211.55 110.437C210.017 102.921 215.778 95.139 223.89 95.5691C231.794 95.9936 234.064 107.127 232.663 113.194C231.161 119.719 226.234 123.215 221.31 127.119C220.849 127.484 221.452 128.251 221.954 127.947C228.583 123.903 234.133 117.928 234.317 109.701C234.458 103.565 231.146 94.58 223.884 94.2588C220.492 94.2152 217.201 95.4165 214.635 97.6356C212.069 99.8547 210.405 102.937 209.959 106.3Z" fill="#191919"/>
<path d="M219.587 127.303C218.21 128.146 216.904 129.099 215.681 130.153C215.159 129.455 214.733 128.69 214.416 127.878C214.116 126.913 214.143 126.582 215.083 126.729C215.636 126.815 216.187 127.05 216.714 127.165C216.824 127.195 216.941 127.181 217.04 127.125C217.139 127.069 217.212 126.976 217.243 126.867C217.273 126.757 217.259 126.64 217.203 126.541C217.147 126.442 217.055 126.369 216.945 126.338C216.417 126.15 215.865 126.014 215.313 125.856C214.955 125.685 214.562 125.598 214.164 125.602C213.974 125.664 213.804 125.776 213.671 125.925C213.538 126.074 213.446 126.256 213.406 126.451C212.793 128.186 214.2 129.89 215.038 131.254C215.116 131.382 215.241 131.475 215.387 131.513C215.532 131.552 215.687 131.533 215.819 131.461C217.34 130.426 218.784 129.282 220.139 128.038C220.217 127.959 220.265 127.854 220.272 127.742C220.28 127.631 220.247 127.521 220.18 127.432C220.113 127.343 220.017 127.28 219.908 127.257C219.798 127.233 219.685 127.25 219.587 127.303Z" fill="#191919"/>
<path d="M44.1664 86.2174C44.5569 86.6306 45.1257 86.0377 44.7635 85.6189C41.4807 81.8422 38.096 78.1081 34.9278 74.2451C31.2021 69.6987 30.7281 64.1802 30.5852 58.5047C30.2527 45.2419 43.698 38.1966 51.2668 40.8172C61.0544 44.1976 64.3004 55.0195 62.1807 64.3712C60.0257 73.8857 52.6564 80.6749 46.0045 87.2575C45.4965 87.7612 46.2309 88.4475 46.7629 88.0159C55.2713 81.1079 63.2024 71.4802 63.958 60.0895C63.9778 59.7909 63.958 59.4923 63.9806 59.1938C65.5383 58.6754 67.1374 58.291 68.7605 58.0448C69.3817 57.9556 69.2204 56.9241 68.619 56.9651C67.0157 57.0705 65.4438 57.4596 63.9764 58.1141C63.7471 49.2435 58.5767 40.8794 49.4019 38.9027C42.7372 37.4664 30.2682 44.4721 29.1122 54.7125C28.5363 59.8135 28.9183 66.9423 31.3182 71.551C34.2048 77.1006 39.92 81.7319 44.1664 86.2174Z" fill="#191919"/>
<path d="M38.2149 95.8902C39.4568 93.985 40.8748 92.2004 42.45 90.5599C42.975 90.0279 42.1953 89.2709 41.6449 89.7562C39.6164 91.5294 37.8456 93.5774 36.3839 95.8407C36.2818 96.0177 36.2533 96.2277 36.3047 96.4255C36.356 96.6232 36.4831 96.7928 36.6584 96.8977C38.9422 97.9573 41.3192 98.8033 43.7589 99.4249C43.9074 99.4618 44.0645 99.4393 44.1966 99.3621C44.3288 99.2849 44.4256 99.1592 44.4664 99.0117C44.7848 96.8058 42.6467 94.7823 43.3344 92.6924C43.5636 92.0032 42.5123 91.7528 42.2548 92.3938C41.4213 94.4682 43.2651 96.094 43.3868 98.0241C41.6619 97.2925 39.9143 96.626 38.2149 95.8902Z" fill="#191919"/>
<path d="M16.6829 106.323C20.3709 104.788 24.4518 104.465 28.3351 105.403C32.2183 106.341 35.7023 108.491 38.2829 111.54C44.7989 119.621 43.4872 133.943 39.2253 143.044C38.9423 143.64 39.8139 144.166 40.1224 143.572C43.3809 137.276 44.7773 130.182 44.148 123.121C43.5297 117.362 41.3336 111.58 36.841 107.817C27.5925 100.082 9.99135 101.334 7.40048 116.296C6.67067 121.044 7.25801 125.9 9.09848 130.337C12.9558 139.959 26.336 144.701 35.801 145.478C36.3287 145.521 36.4674 144.622 35.9424 144.537C27.526 143.185 17.7951 139.912 12.4124 132.908C9.72391 129.413 9.0249 124.889 8.96547 120.615C8.87067 114.031 10.3635 109.022 16.6829 106.323Z" fill="#191919"/>
<path d="M41.0633 153.154C40.4973 152.759 39.7983 153.662 40.3289 154.119C41.1539 154.826 42.0057 155.521 42.8561 156.21C42.2926 156.465 41.6817 156.598 41.0633 156.601C39.7757 156.476 38.9988 154.785 38.6734 153.771C38.2533 151.801 38.1449 149.777 38.3522 147.773C38.3522 147.222 37.4706 147.065 37.3419 147.631C36.7023 150.471 36.5806 153.745 38.3522 156.249C40.0275 158.616 42.2024 158.016 44.5782 157.007C44.6724 156.954 44.753 156.88 44.8134 156.79C44.8739 156.7 44.9125 156.598 44.9262 156.491C44.94 156.383 44.9285 156.274 44.8926 156.172C44.8567 156.07 44.7975 155.978 44.7197 155.903C43.4886 154.954 42.3085 154.017 41.0633 153.154Z" fill="#191919"/>
<path d="M183.51 115.721C184.154 115.813 184.452 114.894 183.786 114.731C183.245 114.688 182.721 114.518 182.258 114.235C181.795 113.952 181.405 113.564 181.12 113.102C181.07 113.021 180.993 112.961 180.903 112.931C180.812 112.901 180.714 112.905 180.626 112.941C180.538 112.976 180.466 113.042 180.422 113.127C180.378 113.211 180.365 113.308 180.386 113.401C180.616 114.055 181.036 114.625 181.593 115.039C182.15 115.452 182.817 115.69 183.51 115.721Z" fill="#191919"/>
<path d="M214.21 71.4179C218.492 78.1469 222.117 85.2727 225.033 92.6967C225.218 93.1325 225.953 92.8113 225.792 92.3755C223.157 85.2481 219.868 76.7822 214.784 70.9821C214.722 70.9194 214.639 70.8813 214.551 70.8751C214.463 70.8688 214.376 70.8948 214.306 70.9481C214.236 71.0014 214.187 71.0785 214.169 71.1649C214.152 71.2513 214.166 71.3413 214.21 71.4179Z" fill="#191919"/>
<path d="M205.433 72.9347C205.519 72.882 205.581 72.7974 205.606 72.6992C205.63 72.601 205.616 72.4971 205.564 72.4097C205.513 72.3224 205.43 72.2586 205.332 72.2322C205.234 72.2057 205.13 72.2187 205.042 72.2683C202.697 73.6252 199.365 75.3247 199.78 78.5876C200.17 81.6667 203.317 80.6408 205.478 80.2191C205.695 80.1771 205.91 80.1233 206.122 80.0578C206.311 80.4096 206.465 80.7794 206.581 81.1615C207.224 82.8383 208.138 84.4486 208.902 86.056C210.369 89.1591 211.756 92.3273 213.359 95.3625C213.628 95.8719 214.35 95.4318 214.118 94.9252C211.75 89.6515 209.274 84.4231 206.741 79.2315C206.687 79.1382 206.604 79.0652 206.505 79.0236C206.406 78.982 206.295 78.974 206.191 79.0008C204.547 79.5838 200.221 81.0865 200.814 77.1401C201.114 75.1365 204.003 73.8941 205.433 72.9347Z" fill="#191919"/>
<path d="M199.849 66.2475C200.63 65.3066 202.404 65.823 203.203 66.4315C203.946 67.1526 204.533 68.0197 204.926 68.9785C205.134 69.3237 205.803 69.2077 205.754 68.7492C205.621 67.9237 205.282 67.145 204.768 66.4859C204.254 65.8268 203.581 65.3086 202.812 64.9797C201.821 64.5849 199.267 64.3627 199.113 65.9221C199.113 66.0075 199.137 66.0913 199.183 66.163C199.23 66.2348 199.296 66.2915 199.374 66.326C199.453 66.3606 199.539 66.3716 199.623 66.3576C199.708 66.3437 199.786 66.3054 199.849 66.2475Z" fill="#191919"/>
<path d="M204.513 63.3525C206.583 63.044 207.436 65.7396 207.132 67.3046C207.107 67.4096 207.12 67.5201 207.169 67.6163C207.218 67.7126 207.299 67.7883 207.399 67.8298C207.498 67.8714 207.61 67.8761 207.712 67.8431C207.815 67.8101 207.903 67.7416 207.96 67.6498C208.232 67.0298 208.325 66.3456 208.228 65.6753C208.13 65.005 207.846 64.3756 207.408 63.8591C207.075 63.3635 206.603 62.9784 206.05 62.753C205.498 62.5277 204.89 62.4723 204.306 62.5941C203.802 62.6959 204.03 63.4247 204.513 63.3525Z" fill="#191919"/>
<path d="M208.465 61.7676C208.83 61.7562 209.193 61.8285 209.526 61.9789C209.859 62.1293 210.153 62.3539 210.386 62.6355C210.619 62.9171 210.784 63.2482 210.869 63.6034C210.954 63.9587 210.957 64.3288 210.877 64.6854C210.645 65.8174 210.146 66.8432 210.004 67.995C209.952 68.4309 210.624 68.5681 210.809 68.2016C211.54 66.7513 212.541 64.4052 211.8 62.7779C211.489 62.1785 211.011 61.6819 210.424 61.3477C209.837 61.0136 209.166 60.8562 208.492 60.8946C208.379 60.8965 208.272 60.9416 208.192 61.0205C208.112 61.0993 208.066 61.206 208.062 61.3183C208.059 61.4306 208.099 61.5399 208.174 61.6235C208.249 61.7072 208.353 61.7588 208.465 61.7676Z" fill="#191919"/>
<path d="M214.394 61.3998C215.205 61.1652 216.06 61.1267 216.888 61.2874C217.717 61.4482 218.495 61.8035 219.16 62.3243C219.824 62.845 220.355 63.5162 220.709 64.2824C221.063 65.0487 221.23 65.8881 221.196 66.7315C220.855 68.3539 220.402 69.9506 219.84 71.51C219.58 72.2826 219.588 73.1203 219.864 73.8876C220.139 74.6549 220.665 75.3069 221.357 75.738C221.773 75.963 222.274 75.397 221.885 75.0489C218.879 72.3604 223.658 67.2352 221.977 63.6058C221.187 62.3099 219.988 61.3134 218.57 60.7727C217.152 60.232 215.594 60.1778 214.142 60.6187C214.039 60.6526 213.954 60.7258 213.904 60.8225C213.855 60.9191 213.846 61.0313 213.88 61.1344C213.913 61.2376 213.986 61.3234 214.082 61.3731C214.178 61.4229 214.29 61.4324 214.394 61.3998Z" fill="#191919"/>
<path d="M164.598 135.921C167.195 134.447 170.064 133.516 173.032 133.186C173.537 133.133 173.56 132.355 173.032 132.382C169.88 132.53 166.811 133.445 164.093 135.048C163.986 135.119 163.909 135.228 163.879 135.353C163.85 135.479 163.869 135.611 163.934 135.723C163.998 135.834 164.103 135.917 164.227 135.954C164.35 135.991 164.483 135.979 164.598 135.921Z" fill="#191919"/>
<path d="M208.512 115.147C208.898 114.933 208.557 114.365 208.166 114.55C200.31 118.3 192.448 122.685 186.039 128.636C185.839 126.873 185.816 125.095 185.969 123.327C185.996 122.869 185.235 122.754 185.164 123.213C184.957 125.382 184.926 127.564 185.072 129.739C182.525 131.693 178.914 132.795 175.904 131.417C176.91 126.546 177.885 122.606 177.444 118.042C181.58 120.387 187.572 122.174 191.416 118.571C195.638 114.609 196.098 107.817 194.311 102.692C194.273 102.588 194.197 102.502 194.099 102.452C194.001 102.401 193.887 102.389 193.78 102.418C193.673 102.447 193.582 102.515 193.523 102.608C193.464 102.702 193.442 102.814 193.462 102.923C194.611 107.714 194.567 113.38 190.842 117.261C186.892 121.377 181.604 118.571 177.308 116.825C177.008 114.527 176.507 112.228 176.135 109.977C176.124 109.917 176.097 109.862 176.056 109.818C176.016 109.773 175.964 109.741 175.906 109.725C175.865 109.66 175.806 109.609 175.737 109.576C175.668 109.544 175.591 109.531 175.515 109.541C174.687 109.65 173.421 109.333 173.493 108.231C173.56 107.196 174.873 106.871 175.677 107.012C176.182 107.103 176.414 106.36 175.906 106.208C175.316 106.042 174.688 106.067 174.113 106.278C174.08 105.016 173.88 103.764 173.516 102.555C173.178 101.423 171.959 100.418 171.747 99.2693C173.976 99.7518 180.708 98.8561 182.73 99.8438C187.258 102.051 188.982 99.0118 192.703 100.533C196.425 102.054 198.198 91.9184 196.403 93.0193C191.329 96.1323 186.339 87.0211 180.98 91.525C180.98 91.525 178.038 95.1333 175.832 95.1333C174.734 95.1491 173.671 95.5171 172.798 96.183C171.925 96.8489 171.29 97.7776 170.984 98.8321C170.532 99.991 171.606 100.922 172.156 101.866C172.85 103.423 173.149 105.128 173.029 106.828C173.029 106.875 173.052 106.92 173.052 106.97C171.778 108.463 172.985 110.628 175.396 110.507C175.58 113.724 176.542 116.875 176.528 120.09C176.504 123.88 175.396 127.691 174.897 131.441C174.889 131.518 174.898 131.597 174.922 131.671C174.947 131.745 174.986 131.813 175.038 131.871C175.089 131.929 175.153 131.976 175.223 132.009C175.294 132.041 175.371 132.059 175.449 132.061C178.574 134.475 183.514 132.485 186.295 130.016C187.642 128.813 187.827 126.542 208.512 115.147Z" fill="#191919"/>
<path d="M198.241 173.537C198.799 171.771 198.979 169.908 198.769 168.068C198.663 157.472 197.022 147.276 197.46 139.435C197.487 138.953 196.768 138.976 196.725 139.435C195.634 150.692 198.932 162.056 197.414 173.306C197.353 173.745 198.058 173.929 198.241 173.537Z" fill="#191919"/>
<path d="M164.69 186.704L163.134 207.221L171.682 230.383C171.682 230.383 176.21 205.843 178.369 196.03C172.817 194.711 167.946 191.391 164.69 186.704Z" fill="#191919"/>
<path d="M182.201 196.975L187.649 231.083L198.847 225.993L200.354 193.476C196.057 197.11 187.072 197.871 182.201 196.975Z" fill="#191919"/>
<path d="M126.913 172.249C137.364 168.081 146.774 170.134 157.245 172.957C157.751 173.098 157.915 172.375 157.453 172.176C156.401 171.723 155.315 171.327 154.212 170.957C155.159 166.201 155.46 161.34 155.108 156.503C155.102 156.386 155.05 156.275 154.965 156.195C154.88 156.114 154.766 156.069 154.649 156.069C154.531 156.069 154.418 156.114 154.333 156.195C154.247 156.275 154.196 156.386 154.19 156.503C154.042 161.18 153.512 165.838 152.603 170.428C146.58 168.475 140.178 167.979 133.926 168.981C133.696 165.19 133.501 161.399 133.467 157.584C133.467 157.472 133.422 157.364 133.343 157.284C133.263 157.205 133.155 157.16 133.043 157.16C132.93 157.16 132.822 157.205 132.742 157.284C132.663 157.364 132.618 157.472 132.618 157.584C132.246 162.479 132.457 167.877 132.457 169.281C130.41 169.741 128.433 170.467 126.575 171.44C126.151 171.669 126.453 172.433 126.913 172.249Z" fill="#191919"/>
<path d="M200.056 139.46C204.299 137.662 208.231 135.203 211.705 132.175C212.024 131.918 211.595 131.353 211.269 131.601C207.561 134.174 203.701 136.522 199.71 138.632C199.276 138.887 199.55 139.645 200.056 139.46Z" fill="#191919"/>
<path d="M116.32 195.527C115.378 193.643 92.79 193.368 84.8618 193.483C76.9335 193.597 86.7641 227.789 86.1896 228.708L97.7269 233.458L97.2586 208.738C96.4487 208.735 95.6395 208.688 94.8347 208.596C94.3748 208.572 94.3748 207.851 94.8347 207.862C95.7658 207.885 100.987 207.738 101.202 207.746C101.318 207.746 101.429 207.792 101.511 207.874C101.593 207.956 101.639 208.067 101.639 208.183C101.639 208.299 101.593 208.41 101.511 208.492C101.429 208.574 101.318 208.62 101.202 208.62C100.515 208.676 99.8243 208.691 99.1349 208.666L104.174 235.833L113.658 220.748C113.654 220.805 117.262 197.412 116.32 195.527Z" fill="#191919"/>
<path d="M129.257 196.01C126.293 196.01 108.826 236.052 107.907 236.512C107.907 236.512 121.48 240.244 131.66 240.244C132.352 240.655 134.45 223.516 135.277 219.104C134.381 218.99 133.508 218.85 132.612 218.667C132.152 218.574 132.244 217.793 132.727 217.841C137.163 218.281 141.738 218.145 146.147 218.806C146.744 218.895 146.605 219.918 146.005 219.863C145.799 219.843 145.592 219.839 145.386 219.816C146.696 223.792 148.626 240.244 148.626 240.244L159.485 239.226L170.683 236.851C170.683 236.851 156.549 197.069 154.876 195.985C153.203 194.901 132.222 196.01 129.257 196.01Z" fill="#191919"/>
<path d="M106.233 121.076C106.576 121.104 106.626 120.651 106.392 120.479C105.811 120.175 105.161 120.025 104.505 120.045C103.849 120.065 103.209 120.254 102.647 120.593C102.21 120.821 102.597 121.442 103.015 121.237C104.032 120.793 105.176 120.735 106.233 121.076Z" fill="#191919"/>
<path d="M183.95 102.647C183.136 102.526 182.305 102.581 181.513 102.808C180.821 102.92 180.179 103.24 179.674 103.727C179.594 103.812 179.544 103.921 179.531 104.038C179.518 104.154 179.543 104.272 179.603 104.373C179.662 104.474 179.753 104.553 179.861 104.597C179.97 104.642 180.09 104.651 180.203 104.622C180.792 104.43 181.368 104.2 181.927 103.933C182.588 103.743 183.265 103.612 183.95 103.543C184.045 103.512 184.128 103.453 184.187 103.372C184.246 103.292 184.278 103.195 184.278 103.095C184.278 102.995 184.246 102.898 184.187 102.817C184.128 102.737 184.045 102.677 183.95 102.647Z" fill="#191919"/>
<path d="M192.518 102.831C191.849 102.356 191.061 102.078 190.243 102.026C189.405 101.885 188.548 101.9 187.715 102.072C187.612 102.104 187.524 102.172 187.466 102.262C187.408 102.353 187.383 102.461 187.397 102.568C187.411 102.675 187.461 102.774 187.541 102.847C187.62 102.92 187.722 102.963 187.83 102.968C188.553 102.997 189.275 103.066 189.991 103.175C190.647 103.393 191.315 103.577 191.99 103.727C192.45 103.792 192.998 103.202 192.518 102.831Z" fill="#191919"/>
<path d="M151.868 126.843C151.272 126.486 150.604 126.265 149.913 126.197C149.222 126.13 148.524 126.217 147.87 126.453C147.837 126.462 147.806 126.478 147.779 126.499C147.752 126.52 147.729 126.547 147.712 126.577C147.696 126.607 147.685 126.64 147.681 126.674C147.677 126.708 147.679 126.743 147.688 126.776C147.698 126.809 147.714 126.84 147.735 126.868C147.756 126.895 147.782 126.917 147.813 126.934C147.843 126.951 147.876 126.962 147.91 126.966C147.944 126.97 147.979 126.967 148.012 126.958C148.592 126.828 149.192 126.818 149.776 126.928C150.361 127.039 150.916 127.268 151.408 127.602C151.458 127.632 151.513 127.652 151.57 127.661C151.628 127.67 151.687 127.667 151.743 127.653C151.8 127.64 151.853 127.615 151.9 127.58C151.947 127.546 151.987 127.502 152.017 127.453C152.047 127.403 152.067 127.348 152.076 127.29C152.085 127.232 152.082 127.174 152.069 127.117C152.055 127.061 152.03 127.007 151.995 126.96C151.961 126.913 151.918 126.874 151.868 126.843Z" fill="#191919"/>
<path d="M141.252 126.269C140.69 126.093 140.098 126.037 139.513 126.104C138.928 126.171 138.364 126.36 137.856 126.659C137.515 126.985 137.948 127.416 138.316 127.257C139.281 127.037 140.268 126.93 141.258 126.935C141.33 126.914 141.393 126.87 141.438 126.809C141.483 126.749 141.507 126.675 141.506 126.6C141.506 126.525 141.481 126.452 141.435 126.392C141.389 126.332 141.325 126.289 141.252 126.269Z" fill="#191919"/>
<defs>
<linearGradient id="paint0_linear_1_227" x1="8.04619" y1="124.231" x2="49.7834" y2="111.253" gradientUnits="userSpaceOnUse">
<stop stop-color="#F54799"/>
<stop offset="0.440104" stop-color="#7A21B5"/>
<stop offset="0.945312" stop-color="#02B3FF"/>
</linearGradient>
<linearGradient id="paint1_linear_1_227" x1="32.0142" y1="49.7847" x2="72.9329" y2="64.8973" gradientUnits="userSpaceOnUse">
<stop stop-color="#F54799"/>
<stop offset="0.440104" stop-color="#7A21B5"/>
<stop offset="0.945312" stop-color="#02B3FF"/>
</linearGradient>
<linearGradient id="paint2_linear_1_227" x1="274.95" y1="65.7238" x2="228.509" y2="72.4847" gradientUnits="userSpaceOnUse">
<stop stop-color="#F54799"/>
<stop offset="0.440104" stop-color="#7A21B5"/>
<stop offset="0.945312" stop-color="#02B3FF"/>
</linearGradient>
</defs>
</svg>
