<svg width="16" height="16" viewBox="0 0 16 16" fill="none" xmlns="http://www.w3.org/2000/svg">
<rect width="16" height="16" />
<path fill-rule="evenodd" clip-rule="evenodd" d="M12.9323 9.11435C12.911 9.07257 12.8861 9.02841 12.8598 8.98272L8.53332 1.48326C8.16159 0.838913 7.23229 0.838913 6.86056 1.48326L2.47043 9.09312C2.46948 9.09476 2.46854 9.09641 2.46761 9.09804C2.246 9.39047 2.19006 9.80445 2.39941 10.1673L4.90856 14.5168C5.28029 15.1611 6.20959 15.1611 6.58132 14.5168L7.69393 12.5881L8.80654 14.5168C9.17826 15.1611 10.1076 15.1611 10.4793 14.5168L12.9884 10.1673C13.1939 9.81114 13.1438 9.40572 12.9323 9.11435ZM9.20634 9.51739C10.4471 9.51383 11.5774 9.50072 12.3117 9.47674C12.4091 9.55239 12.448 9.69407 12.3783 9.81482L9.86917 14.1641C9.76861 14.3384 9.51721 14.3384 9.41665 14.1641L8.10068 11.8831L9.09047 10.1673C9.21201 9.95665 9.24414 9.72874 9.20634 9.51739ZM6.9353 9.51392C7.43886 9.51681 7.95178 9.51833 8.45628 9.5184C8.52085 9.59781 8.53871 9.71365 8.48034 9.81482L7.69393 11.178L6.90751 9.81482C6.84803 9.71173 6.8677 9.5934 6.9353 9.51392ZM3.11401 9.45231C3.83063 9.4786 4.94866 9.49779 6.18316 9.5085C6.14284 9.72235 6.17414 9.95369 6.29739 10.1673L7.28719 11.8831L5.9712 14.1641C5.87064 14.3384 5.61924 14.3384 5.51868 14.1641L3.00954 9.81482C2.93143 9.67944 2.98981 9.51778 3.11401 9.45231Z" fill="url(#paint0_linear_2671_2)"/>
<defs>
<linearGradient id="paint0_linear_2671_2" x1="3.94567" y1="13.1395" x2="12.4205" y2="10.1614" gradientUnits="userSpaceOnUse">
<stop stop-color="#F54799"/>
<stop offset="0.440104" stop-color="#7A21B5"/>
<stop offset="0.945312" stop-color="#02B3FF"/>
</linearGradient>
</defs>
</svg>
