[
  {
    "field": "title",
    "method": "isEmpty",
    "args": [{ "ignore_whitespace": true }],
    "validWhen": false,
    "message": "error.valueIsMissing"
  },
  {
    "field": "title",
    "method": "isLength",
    "args": [{ "max": 120 }],
    "validWhen": true,
    "message": "error.valueIsTooLong"
  },
  {
    "field": "start",
    "method": "isEmpty",
    "args": [{ "ignore_whitespace": true }],
    "validWhen": false,
    "message": "error.valueIsMissing"
  },
  {
    "field": "end",
    "method": "isEmpty",
    "args": [{ "ignore_whitespace": true }],
    "validWhen": false,
    "message": "error.valueIsMissing"
  },
  {
    "field": "timezone",
    "method": "isEmpty",
    "args": [{ "ignore_whitespace": true }],
    "validWhen": false,
    "message": "error.valueIsMissing"
  }
]
