[
  {
    "field": "title",
    "method": "isEmpty",
    "args": [{ "ignore_whitespace": true }],
    "validWhen": false,
    "message": "error.valueIsMissing"
  },
  {
    "field": "title",
    "method": "isLength",
    "args": [{ "max": 120 }],
    "validWhen": true,
    "message": "error.valueIsTooLong"
  },
  {
    "field": "keywords",
    "method": "isLength",
    "args": [{ "min": 1 }],
    "validWhen": true,
    "message": "error.selectAtLeastOneElement"
  },
  {
    "field": "short_description",
    "method": "isEmpty",
    "args": [{ "ignore_whitespace": true }],
    "validWhen": false,
    "message": "error.valueIsMissing"
  },
  {
    "field": "short_description",
    "method": "isLength",
    "args": [{ "max": 500 }],
    "validWhen": true,
    "message": "error.valueIsTooLong"
  }
]
